_________________________________________

   26   122  9120 ./cprograma
   36   261  1780 esaerak.txt
   62   383 10900 total
_________________________________________

  27   90  761 lenengoa.py
  36  261 1780 esaerak.txt
  63  351 2541 total
_________________________________________

  13   58  534 bigarren.py
  36  261 1780 esaerak.txt
  49  319 2314 total
_________________________________________


Fitzategiak irakurtzeko sistema operatibiari eskatu behar diosu. Punteroa rekin funtzionatzen duenes eta karaktere batzuen bit kopurua besteena baino andiegoa denes ez du atzipen susena baimentzen.
